[
    {
        "id": 10,
        "name": "Abs",
        "imageName": "Abs"
    },
    {
        "id": 8,
        "name": "Arms",
        "imageName": "Arms"
    },
    {
        "id": 12,
        "name": "Back",
        "imageName": "Back"
    },
    {
        "id": 14,
        "name": "Calves",
        "imageName": "Calves"
    },
    {
        "id": 11,
        "name": "Chest",
        "imageName": "Chest"
    },
    {
        "id": 9,
        "name": "Legs",
        "imageName": "Legs"
    },
    {
        "id": 13,
        "name": "Shoulders",
        "imageName": "Shoulders"
    }
]
